^F:\PENN\PBRT\NITAI_RENDERER\NITAI_RENDERER\NITAI_RENDERER\CUDAOPENGL.CPP
/c /IF:\Penn\PBRT\Nitai_Renderer\Nitai_Renderer\include /I"C:\Program Files\NVIDIA GPU Computing Toolkit\CUDA\v7.0\include" /ZI /nologo /W3 /WX- /Od /Oy- /D WIN32 /D _DEBUG /D _CONSOLE /D _MBCS /Gm /EHsc /RTC1 /MDd /GS /fp:precise /Zc:wchar_t /Zc:forScope /Fo"DEBUG\\" /Fd"DEBUG\VC110.PDB" /Gd /TP /analyze- F:\PENN\PBRT\NITAI_RENDERER\NITAI_RENDERER\NITAI_RENDERER\CUDAOPENGL.CPP
^F:\PENN\PBRT\NITAI_RENDERER\NITAI_RENDERER\NITAI_RENDERER\KEYBOARDHANDLER.CPP
/c /IF:\Penn\PBRT\Nitai_Renderer\Nitai_Renderer\include /I"C:\Program Files\NVIDIA GPU Computing Toolkit\CUDA\v7.0\include" /ZI /nologo /W3 /WX- /Od /Oy- /D WIN32 /D _DEBUG /D _CONSOLE /D _MBCS /Gm /EHsc /RTC1 /MDd /GS /fp:precise /Zc:wchar_t /Zc:forScope /Fo"DEBUG\\" /Fd"DEBUG\VC110.PDB" /Gd /TP /analyze- F:\PENN\PBRT\NITAI_RENDERER\NITAI_RENDERER\NITAI_RENDERER\KEYBOARDHANDLER.CPP
^F:\PENN\PBRT\NITAI_RENDERER\NITAI_RENDERER\NITAI_RENDERER\MAIN.CPP
/c /IF:\Penn\PBRT\Nitai_Renderer\Nitai_Renderer\include /I"C:\Program Files\NVIDIA GPU Computing Toolkit\CUDA\v7.0\include" /ZI /nologo /W3 /WX- /Od /Oy- /D WIN32 /D _DEBUG /D _CONSOLE /D _MBCS /Gm /EHsc /RTC1 /MDd /GS /fp:precise /Zc:wchar_t /Zc:forScope /Fo"DEBUG\\" /Fd"DEBUG\VC110.PDB" /Gd /TP /analyze- F:\PENN\PBRT\NITAI_RENDERER\NITAI_RENDERER\NITAI_RENDERER\MAIN.CPP
^F:\PENN\PBRT\NITAI_RENDERER\NITAI_RENDERER\NITAI_RENDERER\MOUSEHANDLER.CPP
/c /IF:\Penn\PBRT\Nitai_Renderer\Nitai_Renderer\include /I"C:\Program Files\NVIDIA GPU Computing Toolkit\CUDA\v7.0\include" /ZI /nologo /W3 /WX- /Od /Oy- /D WIN32 /D _DEBUG /D _CONSOLE /D _MBCS /Gm /EHsc /RTC1 /MDd /GS /fp:precise /Zc:wchar_t /Zc:forScope /Fo"DEBUG\\" /Fd"DEBUG\VC110.PDB" /Gd /TP /analyze- F:\PENN\PBRT\NITAI_RENDERER\NITAI_RENDERER\NITAI_RENDERER\MOUSEHANDLER.CPP
^F:\PENN\PBRT\NITAI_RENDERER\NITAI_RENDERER\NITAI_RENDERER\SCENE.CPP
/c /IF:\Penn\PBRT\Nitai_Renderer\Nitai_Renderer\include /I"C:\Program Files\NVIDIA GPU Computing Toolkit\CUDA\v7.0\include" /ZI /nologo /W3 /WX- /Od /Oy- /D WIN32 /D _DEBUG /D _CONSOLE /D _MBCS /Gm /EHsc /RTC1 /MDd /GS /fp:precise /Zc:wchar_t /Zc:forScope /Fo"DEBUG\\" /Fd"DEBUG\VC110.PDB" /Gd /TP /analyze- F:\PENN\PBRT\NITAI_RENDERER\NITAI_RENDERER\NITAI_RENDERER\SCENE.CPP
^F:\PENN\PBRT\NITAI_RENDERER\NITAI_RENDERER\NITAI_RENDERER\SIMPLEPATHTRACER.CPP
/c /IF:\Penn\PBRT\Nitai_Renderer\Nitai_Renderer\include /I"C:\Program Files\NVIDIA GPU Computing Toolkit\CUDA\v7.0\include" /ZI /nologo /W3 /WX- /Od /Oy- /D WIN32 /D _DEBUG /D _CONSOLE /D _MBCS /Gm /EHsc /RTC1 /MDd /GS /fp:precise /Zc:wchar_t /Zc:forScope /Fo"DEBUG\\" /Fd"DEBUG\VC110.PDB" /Gd /TP /analyze- F:\PENN\PBRT\NITAI_RENDERER\NITAI_RENDERER\NITAI_RENDERER\SIMPLEPATHTRACER.CPP
^F:\PENN\PBRT\NITAI_RENDERER\NITAI_RENDERER\NITAI_RENDERER\UTILS.CPP
/c /IF:\Penn\PBRT\Nitai_Renderer\Nitai_Renderer\include /I"C:\Program Files\NVIDIA GPU Computing Toolkit\CUDA\v7.0\include" /ZI /nologo /W3 /WX- /Od /Oy- /D WIN32 /D _DEBUG /D _CONSOLE /D _MBCS /Gm /EHsc /RTC1 /MDd /GS /fp:precise /Zc:wchar_t /Zc:forScope /Fo"DEBUG\\" /Fd"DEBUG\VC110.PDB" /Gd /TP /analyze- F:\PENN\PBRT\NITAI_RENDERER\NITAI_RENDERER\NITAI_RENDERER\UTILS.CPP
^F:\PENN\PBRT\NITAI_RENDERER\NITAI_RENDERER\NITAI_RENDERER\CUDAUTILS.CPP
/c /IF:\Penn\PBRT\Nitai_Renderer\Nitai_Renderer\include /I"C:\Program Files\NVIDIA GPU Computing Toolkit\CUDA\v7.0\include" /ZI /nologo /W3 /WX- /Od /Oy- /D WIN32 /D _DEBUG /D _CONSOLE /D _MBCS /Gm /EHsc /RTC1 /MDd /GS /fp:precise /Zc:wchar_t /Zc:forScope /Fo"DEBUG\\" /Fd"DEBUG\VC110.PDB" /Gd /TP /analyze- F:\PENN\PBRT\NITAI_RENDERER\NITAI_RENDERER\NITAI_RENDERER\CUDAUTILS.CPP
^F:\PENN\PBRT\NITAI_RENDERER\NITAI_RENDERER\NITAI_RENDERER\STB_IMAGE.CPP
/c /IF:\Penn\PBRT\Nitai_Renderer\Nitai_Renderer\include /I"C:\Program Files\NVIDIA GPU Computing Toolkit\CUDA\v7.0\include" /ZI /nologo /W3 /WX- /Od /Oy- /D WIN32 /D _DEBUG /D _CONSOLE /D _MBCS /Gm /EHsc /RTC1 /MDd /GS /fp:precise /Zc:wchar_t /Zc:forScope /Fo"DEBUG\\" /Fd"DEBUG\VC110.PDB" /Gd /TP /analyze- F:\PENN\PBRT\NITAI_RENDERER\NITAI_RENDERER\NITAI_RENDERER\STB_IMAGE.CPP
^F:\PENN\PBRT\NITAI_RENDERER\NITAI_RENDERER\NITAI_RENDERER\STB_IMAGE_WRITE.CPP
/c /IF:\Penn\PBRT\Nitai_Renderer\Nitai_Renderer\include /I"C:\Program Files\NVIDIA GPU Computing Toolkit\CUDA\v7.0\include" /ZI /nologo /W3 /WX- /Od /Oy- /D WIN32 /D _DEBUG /D _CONSOLE /D _MBCS /Gm /EHsc /RTC1 /MDd /GS /fp:precise /Zc:wchar_t /Zc:forScope /Fo"DEBUG\\" /Fd"DEBUG\VC110.PDB" /Gd /TP /analyze- F:\PENN\PBRT\NITAI_RENDERER\NITAI_RENDERER\NITAI_RENDERER\STB_IMAGE_WRITE.CPP
^F:\PENN\PBRT\NITAI_RENDERER\NITAI_RENDERER\NITAI_RENDERER\IMPROVMENTS_LIST.CPP
/c /IF:\Penn\PBRT\Nitai_Renderer\Nitai_Renderer\include /I"C:\Program Files\NVIDIA GPU Computing Toolkit\CUDA\v7.0\include" /ZI /nologo /W3 /WX- /Od /Oy- /D WIN32 /D _DEBUG /D _CONSOLE /D _MBCS /Gm /EHsc /RTC1 /MDd /GS /fp:precise /Zc:wchar_t /Zc:forScope /Fo"DEBUG\\" /Fd"DEBUG\VC110.PDB" /Gd /TP /analyze- F:\PENN\PBRT\NITAI_RENDERER\NITAI_RENDERER\NITAI_RENDERER\IMPROVMENTS_LIST.CPP
