{
	MATERIALS: {
		comment: "This is comment, it will be ignored during parsing"
		MATERIAL1:{					//Material ID, use to point by object
			RGB: [ 1, 1, 1],		//DEFAULT: [1, 1, 1] | Red, Green and Blue color of object
			SPECRGB: [1, 1, 1],		//DEFAULT: [1, 1, 1] | Color of specular, i.e. reflected light
			REFLEC: true,			//DEFAULT: false     |Is this can reflect
			REFREC: true,			//DEFAULT: false     |Is this can refract
			"SPECULARITY": 1.5,		//DEFAULT: 0		 |Its glosyness parameter, more specularity, more it is shiny
			IDXREFREC: 0.5,			//DEFAULT: 1         |Index of refraction
			EMITTANCE: 5			//DEFAULT: 1		 |Value more than 1 says, it is light source
		}
		MATERIAL2: {
			....
			....
		}
	}
	
	OBJECTS: {
		OBJECT1:{
			TYPE: "CUBE",					//NODEFAULT				  |	It can be "CUBE" or "SPHERE" or "MESH"
			"FILE": "../scene/obj/bunny.obj"//NODEFAULT FOR MESH TYPE |	obj file location for for "MESH" type object 
			MATERIAL: 1,					//NODEFAULT				  |	Material no. it represent from MATERIALS list
			TRANS: [2,3,4],					//NODEFAULT				  |	Translation value in world space
			ROT: [45, 25, 90],				//NODEFAULT				  |	Rotational value in world space
			SCALE: [3, 3, 3]				//NODEFAULT				  |	Scale value in world space
		}
		OBJECT2: {
			...
			...
			...
		}
	
	}
	
	CAMERA: {
		RES: [500, 500],			// NODEFAULT	|	[width, hight] resolution
		FOVY: 60,					// NODEFAULT	|	Field of view in Y-direction
		RADIUS: 50,					// NODEFAULT	|	Radius of specrical camera 
		THETA: 45,					// NODEFAULT	|	Angle from Y-Z plane
		PHI: 45						// NODEFAULT	|	Angle from X-Z plane
		REF: [0,0,0]				//DEFAULT: [0,0,0]  | 
	}
	
}